<svg xmlns="http://www.w3.org/2000/svg" width="58.79" height="25.475" viewBox="0 0 58.79 25.475">
  <g id="surface1" transform="translate(0 -0.492)">
    <path id="Unión_4" data-name="Unión 4" d="M449.656-811.173H427.923a5.872,5.872,0,0,1-4.817,4.817,5.873,5.873,0,0,1-6.764-4.817h-5.967a.979.979,0,0,1-.98-.98v-3.919a.979.979,0,0,1,.98-.98h.979v-3.157a3.939,3.939,0,0,1,3.619-3.908l9.619-.739,4.735-5.521a3.911,3.911,0,0,1,2.976-1.372h12.625a2.952,2.952,0,0,1,2.91,2.523l.619,4.335h16.787a.98.98,0,0,1,.98.98v6.859h.98a.98.98,0,0,1,.98.98v3.919a.981.981,0,0,1-.98.98h-5.967a5.873,5.873,0,0,1-4.817,4.817,5.912,5.912,0,0,1-.98.082A5.874,5.874,0,0,1,449.656-811.173Zm1.871-.98a3.918,3.918,0,0,0,3.919,3.919,3.92,3.92,0,0,0,3.92-3.919,3.92,3.92,0,0,0-3.92-3.919A3.918,3.918,0,0,0,451.527-812.153Zm-33.314,0a3.919,3.919,0,0,0,3.919,3.919,3.919,3.919,0,0,0,3.919-3.919,3.919,3.919,0,0,0-3.919-3.919A3.919,3.919,0,0,0,418.213-812.153Zm44.093-.979h3.919v-1.96h-3.919Zm-22.536,0h8.818v-3.919a3.919,3.919,0,0,1,3.919-3.919h5.88a3.919,3.919,0,0,1,3.919,3.919h1.96v-5.879h-24.5v5.879h6.858v1.959H439.77Zm-13.718-7.7a3.919,3.919,0,0,1,2.939,3.78v3.919h8.818v-1.96h-6.859v-1.959h6.859v-5.879H426.052Zm-14.7,7.7h3.919v-1.96h-3.919Zm39.193-3.919v1.656a5.694,5.694,0,0,1,.373-.5l.011-.013a5.767,5.767,0,0,1,.654-.663c.024-.022.047-.045.073-.067a5.889,5.889,0,0,1,.73-.523l.127-.077a6.111,6.111,0,0,1,.8-.383l.145-.054a5.882,5.882,0,0,1,.882-.244c.039-.008.078-.012.118-.019a5.475,5.475,0,0,1,1.675-.045c.07.008.139.021.209.032.157.024.311.054.464.09.076.018.149.037.224.058.156.043.3.093.45.148.061.023.123.042.184.067a5.939,5.939,0,0,1,.588.279c.022.013.043.028.066.041a5.32,5.32,0,0,1,.49.307c.058.04.113.084.169.126q.18.136.348.284c.056.052.112.1.166.149q.171.165.33.343c.039.044.081.086.12.131a6.093,6.093,0,0,1,.391.517l.012.016v-1.652a1.96,1.96,0,0,0-1.959-1.96h-5.88A1.96,1.96,0,0,0,450.547-817.052Zm-27.429-.891c.04.007.078.011.118.019a5.91,5.91,0,0,1,.882.244l.145.054a5.939,5.939,0,0,1,.8.384l.128.077a5.788,5.788,0,0,1,.73.522c.025.022.048.045.073.067a5.84,5.84,0,0,1,.654.663l.011.013a5.835,5.835,0,0,1,.374.5v-1.656a1.96,1.96,0,0,0-1.96-1.96h-5.879a1.96,1.96,0,0,0-1.96,1.96v1.652l.012-.016a5.869,5.869,0,0,1,.392-.517c.038-.045.08-.087.12-.131.105-.119.215-.233.331-.343.053-.05.109-.1.164-.148.113-.1.23-.2.349-.285.058-.041.111-.086.169-.126.159-.112.322-.209.49-.307.023-.013.043-.028.066-.041a5.939,5.939,0,0,1,.588-.279c.06-.024.122-.044.183-.067.148-.055.3-.105.45-.148l.224-.058c.153-.036.309-.066.465-.09.069-.011.138-.023.209-.032a5.468,5.468,0,0,1,.692-.044A5.476,5.476,0,0,1,423.118-817.943Zm-7.994-4.22a1.967,1.967,0,0,0-1.81,1.954v3.157h1.959a3.92,3.92,0,0,1,3.92-3.919h4.9v-1.881Zm24.646-2.728h6.709l-.581-4.058a.978.978,0,0,0-.969-.841H439.77Zm-8.955-4.213-3.613,4.213H437.81v-4.9H432.3A1.96,1.96,0,0,0,430.815-829.1Zm1.116,10.092v-1.959h3.919v1.959Z" transform="translate(-409.395 832.241)" fill="#eb0a1e"/>
  </g>
</svg>
