<svg xmlns="http://www.w3.org/2000/svg" width="58.789" height="27.434" viewBox="0 0 58.789 27.434">
  <g id="surface1" transform="translate(0 -0.488)">
    <path id="Unión_5" data-name="Unión 5" d="M550.706-808.239H529.973a6.85,6.85,0,0,1-5.807,5.807,6.85,6.85,0,0,1-7.753-5.807h-2.039a.979.979,0,0,1-.979-.98v-7.037a3.925,3.925,0,0,1,3.67-3.911l12.387-.774,3.8-6.837a3.923,3.923,0,0,1,3.43-2.017h24.774a3.929,3.929,0,0,1,3.583,2.327l1.268,2.854v-1.261a.979.979,0,0,1,.979-.98H571.2a.979.979,0,0,1,.979.98v11.758a.979.979,0,0,1-.979.979h-2.939v3.919a.98.98,0,0,1-.98.98h-3.018a6.852,6.852,0,0,1-5.807,5.807,6.908,6.908,0,0,1-.982.07A6.852,6.852,0,0,1,550.706-808.239Zm1.882-.98a4.9,4.9,0,0,0,4.9,4.9,4.906,4.906,0,0,0,4.9-4.9,4.9,4.9,0,0,0-4.9-4.9A4.9,4.9,0,0,0,552.588-809.219Zm-34.294,0a4.9,4.9,0,0,0,4.9,4.9,4.905,4.905,0,0,0,4.9-4.9,4.9,4.9,0,0,0-4.9-4.9A4.9,4.9,0,0,0,518.294-809.219Zm39.865-6.818c.074.007.145.021.217.031.148.019.293.038.437.067.085.016.167.04.252.059.127.031.255.061.38.1.087.025.172.056.256.086.119.041.238.082.353.13.085.034.168.071.251.11.112.049.221.1.33.158.081.043.162.085.241.132.105.059.212.123.31.189.077.053.153.1.228.151.1.07.2.144.293.219.071.056.141.109.209.167.1.081.187.167.278.253.063.059.125.115.185.176.094.092.182.2.272.294.051.058.1.112.149.172.1.125.2.257.294.391.026.04.057.075.083.113q.177.263.329.54c.03.053.053.109.08.163.067.135.136.272.2.411.032.075.059.151.088.228.048.123.1.247.138.374.027.084.049.171.073.257.038.122.071.244.1.368.021.092.036.181.053.278.013.075.032.148.043.222h2.029v-8.818h-9.8V-816l.092-.013c.072-.01.144-.023.217-.03.221-.022.445-.034.671-.034A5.373,5.373,0,0,1,558.159-816.036ZM530.051-810.2H542.79v-8.818H530.051Zm14.7,0H550.7c.01-.076.029-.148.042-.222.017-.094.032-.186.053-.278.031-.124.064-.246.1-.368.023-.086.046-.174.074-.258.039-.127.089-.25.137-.374.031-.076.058-.152.088-.227.058-.14.126-.276.2-.411.028-.054.05-.11.08-.163.1-.185.211-.365.329-.54.026-.039.057-.075.083-.113.094-.132.191-.265.294-.392l.15-.171c.089-.1.177-.2.27-.3.06-.061.122-.118.185-.176.091-.086.18-.173.278-.254.068-.058.139-.112.209-.167.1-.076.2-.149.293-.22.075-.053.15-.1.228-.151q.153-.1.31-.189c.079-.046.172-.1.241-.132s.138-.072.208-.106v-3.6h-9.8Zm-27.558-8.014a1.96,1.96,0,0,0-1.837,1.96v6.05h1.05c.011-.076.029-.148.043-.222.016-.094.031-.186.052-.278.031-.125.064-.246.1-.368.024-.086.046-.174.074-.258.04-.127.089-.251.137-.374.031-.076.058-.153.089-.227.058-.14.126-.276.2-.412.028-.053.051-.11.081-.162.1-.185.211-.366.328-.54.027-.04.058-.075.084-.113.093-.133.19-.266.293-.392.052-.058.1-.114.15-.172.089-.1.174-.2.272-.293.059-.061.122-.118.185-.176.092-.086.181-.173.278-.254.068-.058.139-.112.209-.167.1-.076.2-.149.294-.22.075-.053.15-.1.227-.151.1-.066.205-.129.311-.189.079-.046.159-.089.241-.132.109-.06.218-.109.329-.158.084-.038.167-.076.251-.11.115-.048.234-.088.353-.13.086-.03.169-.059.256-.086.125-.037.253-.067.381-.1.084-.02.167-.042.252-.059.141-.028.289-.048.436-.067.073-.01.144-.023.218-.03.22-.022.445-.034.671-.034s.45.013.67.034c.074.006.145.02.218.03.147.019.292.039.436.067.086.017.167.04.252.059.128.031.255.06.38.1.087.026.172.056.257.086.119.041.237.082.353.13.084.034.167.072.25.11.112.049.221.1.33.158.082.043.162.086.241.132.106.06.212.123.31.189.077.053.153.1.228.151.1.07.2.144.293.22.071.055.141.109.21.167.1.081.186.167.278.254.062.058.125.114.184.176l.008.008v-4.882Zm51.074,3.118h1.959v-9.8h-1.959Zm-11.758-5.879h9.27l-2.531-5.7a1.962,1.962,0,0,0-1.792-1.164h-4.947Zm-11.758,0h9.8v-6.859h-9.8Zm-9.78-5.851-3.252,5.851H542.79v-6.859h-6.109A1.959,1.959,0,0,0,534.969-826.827Zm19.579,17.609a2.94,2.94,0,0,1,2.939-2.939,2.94,2.94,0,0,1,2.939,2.939,2.94,2.94,0,0,1-2.939,2.94A2.94,2.94,0,0,1,554.548-809.219Zm1.959,0a.98.98,0,0,0,.98.98.98.98,0,0,0,.98-.98.981.981,0,0,0-.98-.98A.981.981,0,0,0,556.507-809.219Zm-36.254,0a2.94,2.94,0,0,1,2.94-2.939,2.94,2.94,0,0,1,2.939,2.939,2.94,2.94,0,0,1-2.939,2.94A2.941,2.941,0,0,1,520.253-809.219Zm1.96,0a.979.979,0,0,0,.98.98.979.979,0,0,0,.979-.98.98.98,0,0,0-.979-.98A.98.98,0,0,0,522.213-809.219Zm14.7-5.879v-1.959h3.919v1.959Z" transform="translate(-513.395 830.283)" fill="#eb0a1e"/>
  </g>
</svg>
